…
# Example

Let’s partition `iris` by `Species`.

``` r
iris_part <- partition(iris, Species)
#> Initialising 3 core cluster.
#> Warning: group_indices_.grouped_df ignores extra arguments

iris_part
#> Source: party_df [150 x 5]
#> Groups: Species
#> Shards: 3 [50--50 rows]
#> 
#> # S3: party_df
#>    Sepal.Length Sepal.Width Petal.Length Petal.Width Species  
#>           <dbl>       <dbl>        <dbl>       <dbl> <fct>    
#>  1          6.3         3.3          6           2.5 virginica
#>  2          5.8         2.7          5.1         1.9 virginica
#>  3          7.1         3            5.9         2.1 virginica
#>  4          6.3         2.9          5.6         1.8 virginica
#>  5          6.5         3            5.8         2.2 virginica
#>  6          7.6         3            6.6         2.1 virginica
#>  7          4.9         2.5          4.5         1.7 virginica
#>  8          7.3         2.9          6.3         1.8 virginica
#>  9          6.7         2.5          5.8         1.8 virginica
#> 10          7.2         3.6          6.1         2.5 virginica
#> # ... with 140 more rows
```
…
``` r
# Library like normal. Make variables like normal
library(purrr)
x <- 1
```

Run locally to make sure things are working.

``` r
iris %>% mutate(y = map_dbl(Petal.Width, ~ .x + 2 * x))
#> # A tibble: 150 x 6
#>    Sepal.Length Sepal.Width Petal.Length Petal.Width Species     y
#>           <dbl>       <dbl>        <dbl>       <dbl> <fct>   <dbl>
#>  1          5.1         3.5          1.4         0.2 setosa    2.2
#>  2          4.9         3            1.4         0.2 setosa    2.2
#>  3          4.7         3.2          1.3         0.2 setosa    2.2
#>  4          4.6         3.1          1.5         0.2 setosa    2.2
#>  5          5           3.6          1.4         0.2 setosa    2.2
#>  6          5.4         3.9          1.7         0.4 setosa    2.4
#>  7          4.6         3.4          1.4         0.3 setosa    2.3
#>  8          5           3.4          1.5         0.2 setosa    2.2
#>  9          4.4         2.9          1.4         0.2 setosa    2.2
#> 10          4.9         3.1          1.5         0.1 setosa    2.1
#> # ... with 140 more rows
```

Switch out the local variable name for the partitioned one. Rows are
scrambled so don’t let that mess with you.

**Note that the `purrr` package and the `x` variable are automatically
exported for you by `future`\!**

``` r
iris_part %>% mutate(y = map_dbl(Petal.Width, ~ .x + 2 * x))
#> Source: party_df [150 x 6]
#> Groups: Species
#> Shards: 3 [50--50 rows]
#> 
#> # S3: party_df
#>    Sepal.Length Sepal.Width Petal.Length Petal.Width Species       y
#>           <dbl>       <dbl>        <dbl>       <dbl> <fct>     <dbl>
#>  1          6.3         3.3          6           2.5 virginica   4.5
#>  2          5.8         2.7          5.1         1.9 virginica   3.9
#>  3          7.1         3            5.9         2.1 virginica   4.1
#>  4          6.3         2.9          5.6         1.8 virginica   3.8
#>  5          6.5         3            5.8         2.2 virginica   4.2
#>  6          7.6         3            6.6         2.1 virginica   4.1
#>  7          4.9         2.5          4.5         1.7 virginica   3.7
#>  8          7.3         2.9          6.3         1.8 virginica   3.8
#>  9          6.7         2.5          5.8         1.8 virginica   3.8
#> 10          7.2         3.6          6.1         2.5 virginica   4.5
#> # ... with 140 more rows
```

# Example 2

We can still export things manually if needed.

``` r
.cl <- iris_part$cluster
cluster_assign_value(.cl, "my_remote_var", 2)

iris_part %>%
  mutate(remote_var = my_remote_var)
#> Source: party_df [150 x 6]
#> Groups: Species
#> Shards: 3 [50--50 rows]
#> 
#> # S3: party_df
#>    Sepal.Length Sepal.Width Petal.Length Petal.Width Species   remote_var
#>           <dbl>       <dbl>        <dbl>       <dbl> <fct>          <dbl>
#>  1          6.3         3.3          6           2.5 virginica          2
#>  2          5.8         2.7          5.1         1.9 virginica          2
#>  3          7.1         3            5.9         2.1 virginica          2
#>  4          6.3         2.9          5.6         1.8 virginica          2
#>  5          6.5         3            5.8         2.2 virginica          2
#>  6          7.6         3            6.6         2.1 virginica          2
#>  7          4.9         2.5          4.5         1.7 virginica          2
#>  8          7.3         2.9          6.3         1.8 virginica          2
#>  9          6.7         2.5          5.8         1.8 virginica          2
#> 10          7.2         3.6          6.1         2.5 virginica          2
#> # ... with 140 more rows
```
…
